Size, Run1, Run2, Run3, Run4, Run5, Run6, Run7, Run8, Run9, Run10, Run11, Run12, Run13, Run14, Run15
1000	,	 252083	,	 243682	,	 248288	,	 255199	,	 246502	,	 258075	,	 252698	,	 243897	,	 256145	,	 249501	,	 249349	,	 251344	,	 241446	,	 249102	,	 255051
1500	,	 566913	,	 557852	,	 561219	,	 572633	,	 559223	,	 566236	,	 559239	,	 579747	,	 547243	,	 566623	,	 550661	,	 570780	,	 552466	,	 571744	,	 568821
2000	,	 1004916	,	 984778	,	 998545	,	 1016402	,	 1006541	,	 953350	,	 996086	,	 1002835	,	 979336	,	 1007169	,	 999609	,	 1012173	,	 999434	,	 979712	,	 996728
2500	,	 1557817	,	 1581806	,	 1552194	,	 1546608	,	 1585375	,	 1553432	,	 1537989	,	 1609276	,	 1585391	,	 1565284	,	 1559780	,	 1530102	,	 1571479	,	 1536717	,	 1559587
3000	,	 2250055	,	 2316312	,	 2234369	,	 2241269	,	 2226923	,	 2245451	,	 2256363	,	 2211928	,	 2212057	,	 2265773	,	 2278400	,	 2308424	,	 2256825	,	 2246519	,	 2198233
3500	,	 3026730	,	 3111772	,	 3114513	,	 3108462	,	 3042702	,	 3092742	,	 3068342	,	 3063297	,	 3091478	,	 3080967	,	 3103316	,	 3034623	,	 3068184	,	 3128029	,	 3075574
4000	,	 4014112	,	 3990213	,	 4010159	,	 3985778	,	 4005133	,	 3997492	,	 4051801	,	 4018049	,	 4073158	,	 3991745	,	 4061692	,	 4046800	,	 3959371	,	 4005201	,	 4054371
4500	,	 5082203	,	 5087198	,	 5092290	,	 5067667	,	 5119982	,	 5166160	,	 5034251	,	 4985697	,	 5062053	,	 5069001	,	 5035867	,	 5054465	,	 5203451	,	 5086196	,	 5050373
5000	,	 6221892	,	 6215208	,	 6280328	,	 6313699	,	 6193862	,	 6299587	,	 6317590	,	 6322574	,	 6212589	,	 6255126	,	 6177949	,	 6234382	,	 6169706	,	 6256578	,	 6213690
5500	,	 7498821	,	 7590196	,	 7514434	,	 7423515	,	 7633332	,	 7549509	,	 7608177	,	 7513775	,	 7618972	,	 7709841	,	 7641364	,	 7560683	,	 7538688	,	 7552542	,	 7602078
6000	,	 8983484	,	 9095542	,	 8988191	,	 8940383	,	 9053073	,	 8922515	,	 9138513	,	 9162493	,	 9017429	,	 8884043	,	 9013693	,	 8999875	,	 9141982	,	 8864942	,	 9126149
6500	,	 10523398	,	 10550726	,	 10491063	,	 10535418	,	 10588579	,	 10542679	,	 10439425	,	 10330684	,	 10538718	,	 10545999	,	 10629385	,	 10447077	,	 10764777	,	 10582208	,	 10424759
7000	,	 12277882	,	 12341523	,	 12290407	,	 12384064	,	 12261521	,	 12141737	,	 12225967	,	 12080694	,	 12463943	,	 12248713	,	 12238789	,	 12224717	,	 12262731	,	 12261765	,	 12061536
7500	,	 14174282	,	 13982243	,	 14073980	,	 14090806	,	 6843804	,	 14021868	,	 14081845	,	 14057866	,	 14170042	,	 14009153	,	 13960112	,	 14116980	,	 14042701	,	 14199138	,	 13895593
